<?xml version="1.0" encoding="UTF-8"?>
<svg width="87px" height="26px" viewBox="0 0 87 26" version="1.1" xmlns="http://www.w3.org/2000/svg" xmlns:xlink="http://www.w3.org/1999/xlink">
    <!-- Generator: Sketch 55.1 (78136) - https://sketchapp.com -->
    <title>Fill 1</title>
    <desc>Created with Sketch.</desc>
    <g id="02_Product-(FINAL-APROBADO)" stroke="none" stroke-width="1" fill="none" fill-rule="evenodd">
        <g id="Dunia_MVP_Desktop_VD_02Product_card_02-Copy-2" transform="translate(-59.000000, -48.000000)" fill="#313131">
            <path d="M68.5208,69.0196 C71.1358,69.0196 73.0128,67.0076 73.0128,64.2926 C73.0128,61.5776 71.1358,59.5656 68.5208,59.5656 C65.9058,59.5656 64.0288,61.5776 64.0288,64.2926 C64.0288,67.0416 65.9398,69.0196 68.5208,69.0196 L68.5208,69.0196 Z M73.0448,49.0596 L77.8398,47.9996 L77.8398,72.5836 L72.8788,72.5836 L72.8788,70.7966 C71.5388,72.5056 69.5598,73.5446 67.1468,73.5446 C62.3858,73.5446 58.9998,69.7236 58.9998,64.2926 C58.9998,58.8616 62.3858,55.0406 67.1468,55.0406 C69.4938,55.0406 71.7048,55.9766 73.0448,57.7196 L73.0448,49.0596 Z M108.4628,58.8476 C110.3308,58.8476 111.7928,59.9216 112.4338,61.5046 L104.1538,63.2416 C104.2008,62.8896 104.2568,62.6496 104.2568,62.6496 C104.6948,60.3616 106.2428,58.8476 108.4628,58.8476 L108.4628,58.8476 Z M117.8498,63.9646 C117.7438,58.6396 114.0038,54.9776 108.5648,54.9776 C103.0118,54.9776 99.0748,58.7466 99.0748,64.1306 C99.0748,69.6836 103.0118,73.5536 108.5648,73.5536 C112.6358,73.5536 116.1698,71.3666 117.0788,68.3716 L112.6698,67.3946 C112.0648,68.7076 110.5158,69.6836 108.6988,69.6836 C106.8128,69.6836 105.3378,68.6086 104.6328,66.8746 L104.6418,66.8736 L117.8498,63.9646 Z M88.3128,58.8476 C90.1788,58.8476 91.6428,59.9216 92.2838,61.5046 L84.0028,63.2416 C84.0498,62.8896 84.1068,62.6496 84.1068,62.6496 C84.5438,60.3616 86.0918,58.8476 88.3128,58.8476 L88.3128,58.8476 Z M98.0428,63.9646 C97.9368,58.6396 93.8538,54.9776 88.4148,54.9776 C82.8618,54.9776 78.9238,58.7466 78.9238,64.1306 C78.9238,69.6836 82.8618,73.5536 88.4148,73.5536 C92.4858,73.5536 96.0198,71.3666 96.9278,68.3716 L92.5198,67.3946 C91.9148,68.7076 90.3658,69.6836 88.5478,69.6836 C86.6628,69.6836 85.1878,68.6086 84.4828,66.8746 L84.4918,66.8736 L98.0428,63.9646 Z M118.8818,55.6396 L123.7308,55.6396 L123.7308,57.6936 C124.8088,55.9426 126.6608,54.9656 128.7828,54.9656 C131.2738,54.9656 132.9058,56.1446 133.8818,58.0306 C134.9938,56.1446 137.0708,54.9996 139.4608,54.9996 C143.3678,54.9996 145.8818,57.8956 145.8818,62.0376 L145.8818,72.6246 L140.8818,72.6246 L140.8818,63.0476 C140.8818,60.9936 139.8538,59.4776 137.9348,59.4106 C135.9818,59.4106 134.8558,60.9256 134.8558,63.0476 L134.8558,72.5936 L129.9088,72.5936 L129.9088,63.0476 C129.9088,60.8586 128.7678,59.4106 126.8818,59.4106 C124.9618,59.4106 123.8388,60.8586 123.8388,63.0476 L123.8388,72.6246 L118.8818,72.6246 L118.8818,55.6396 Z" id="Fill-1"></path>
        </g>
    </g>
</svg>